[gd_resource type="AudioBusLayout" load_steps=2 format=2]

[sub_resource type="AudioEffectChorus" id=1]
resource_name = "Chorus"

[resource]
bus/1/name = "SFX"
bus/1/solo = false
bus/1/mute = false
bus/1/bypass_fx = false
bus/1/volume_db = 0.0
bus/1/send = "Master"
bus/1/effect/0/effect = SubResource( 1 )
bus/1/effect/0/enabled = true
bus/2/name = "BGM"
bus/2/solo = false
bus/2/mute = false
bus/2/bypass_fx = false
bus/2/volume_db = 0.0
bus/2/send = "Master"
